5650
5782
5842
5855
5932
5931
6016
6033
6092
6176
6179
6295
6314
6343
6383
6400
6498
6501
6575
6630
6639
6718
6717
6771
6791
6831
6917
6914
6986
7007
7031
7081
7083
7148
7154
7211
7272
7267
7319
7321
7366
7396
7407
7463
7462
7516
7541
7548
7583
7584
7638
7651
7669
7704
7705
7751
7758
7773
7793
7798
7840
7841
7860
7872
7882
7918
7916
7932
7942
7949
7976
7973
7998
8006
8018
8051
8041
8059
8064
8072
8101
8085
8101
8101
8099
8124
8096
8106
8099
8067
8079
8042
8035
8024
7994
8003
7952
7941
7917
7845
7843
7806
7789
7778
7755
7754
7693
7671
7653
7594
7602
7624
7628
7621
7627
7616
7578
7572
7580
7583
7594
7670
7679
7635
7665
7617
7594
7593
7594
7637
7586
7649
7617
7476
7495
7387
7351
7324
7267
7301
7146
7134
7052
6827
6825
6682
6624
6570
6451
6454
6246
6184
6095
5884
5893
5791
5756
5707
5615
5610
5463
5433
5403
5321
5347
5332
5331
5309
5302
5287
5270
5268
5253
5270
5240
5272
5252
5215
5248
5163
5189
5142
5048
5073
4954
4963
4900
4809
4832
4664
4658
4563
4384
4388
4241
4219
4137
4023
4022
3820
3780
3686
3517
3522
3432
3420
3345
3269
3253
3097
3073
3030
2953
2978
2976
2977
2916
2894
2870
2795
2801
2812
2812
2813
2844
2824
2763
2766
2722
2701
2696
2702
2712
2667
2690
2640
2566
2568
2512
2506
2479
2464
2461
2390
2395
2337
2279
2276
2219
2215
2181
2162
2150
2091
2092
2040
2007
1998
1950
1949
1922
1914
1896
1861
1861
1813
1798
1783
1744
1746
1728
1727
1702
1674
1671
1625
1617
1610
1592
1594
1580
1580
1563
1553
1547
1518
1521
1526
1526
1522
1521
1517
1500
1500
1484
1472
1470
1465
1467
1446
1445
1432
1413
1413
1373
1361
1353
1340
1337
1300
1296
1272
1244
1241
1201
1194
1184
1173
1168
1137
1136
1113
1096
1095
1069
1071
1068
1065
1057
1040
1043
1031
1027
1027
1017
1021
1025
1026
1003
994
992
986
986
969
965
959
955
951
917
911
900
888
885
857
854
842
831
825
790
789
781
774
768
743
746
742
737
734
715
721
722
721
717
709
713
716
716
707
703
703
704
703
691
690
683
681
677
654
653
642
637
632
611
611
594
586
578
550
550
542
